<?xml version="1.0" encoding="UTF-8" standalone="no"?>
<!-- Created with Inkscape (http://www.inkscape.org/) -->

<svg
   xmlns:svg="http://www.w3.org/2000/svg"
   xmlns="http://www.w3.org/2000/svg"
   version="1.2"
   width="750"
   height="600"
   id="svg2">
  <defs
     id="defs4" />
  <g
     id="layer1">
    <flowRoot
       transform="matrix(1,0,0,1.0059144,-3.8759687,-53.761083)"
       id="flowRoot2392"
       xml:space="preserve"
       style="font-size:144px;font-style:italic;font-variant:normal;font-weight:bold;font-stretch:normal;fill:#ff00ff;fill-opacity:1;stroke:none;font-family:URW Chancery L;-inkscape-font-specification:URW Chancery L Bold Italic"><flowRegion
         id="flowRegion2394"><rect
           width="382.42892"
           height="172.26003"
           x="50.387596"
           y="124.03101"
           id="rect2396"
           style="font-size:144px;font-style:italic;font-variant:normal;font-weight:bold;font-stretch:normal;fill:#ff00ff;font-family:URW Chancery L;-inkscape-font-specification:URW Chancery L Bold Italic" /></flowRegion><flowPara
         id="flowPara2398"
         style="font-size:144.42999268px;font-style:italic;font-variant:normal;font-weight:bold;font-stretch:normal;fill:#ff0000;font-family:URW Chancery L;-inkscape-font-specification:URW Chancery L Bold Italic">M</flowPara><flowPara
         id="flowPara2831"
         style="font-size:144.42999268px;font-style:italic;font-variant:normal;font-weight:bold;font-stretch:normal;fill:#ff0000;font-family:URW Chancery L;-inkscape-font-specification:URW Chancery L Bold Italic" /></flowRoot>    <flowRoot
       id="flowRoot2400"
       xml:space="preserve"
       style="font-size:144px;font-style:italic;font-variant:normal;font-weight:bold;font-stretch:normal;fill:#000000;fill-opacity:1;stroke:none;font-family:URW Chancery L;-inkscape-font-specification:URW Chancery L Bold Italic"><flowRegion
         id="flowRegion2402"><rect
           width="556.84753"
           height="218.34625"
           x="52.971577"
           y="445.73642"
           id="rect2404"
           style="font-size:144px;font-style:italic;font-variant:normal;font-weight:bold;font-stretch:normal;font-family:URW Chancery L;-inkscape-font-specification:URW Chancery L Bold Italic" /></flowRegion><flowPara
         id="flowPara2406" /></flowRoot>    <flowRoot
       transform="translate(96.520377,-365.92651)"
       id="flowRoot2408"
       xml:space="preserve"
       style="font-size:144px;font-style:italic;font-variant:normal;font-weight:bold;font-stretch:normal;fill:#000000;fill-opacity:1;stroke:none;font-family:URW Chancery L;-inkscape-font-specification:URW Chancery L Bold Italic"><flowRegion
         id="flowRegion2410"><rect
           width="652.45477"
           height="196.38243"
           x="68.475449"
           y="471.57623"
           id="rect2412"
           style="font-size:144px;font-style:italic;font-variant:normal;font-weight:bold;font-stretch:normal;fill:#000000;font-family:URW Chancery L;-inkscape-font-specification:URW Chancery L Bold Italic" /></flowRegion><flowPara
         id="flowPara2414"
         style="fill:#ff0000">Q</flowPara></flowRoot>    <flowRoot
       transform="translate(42.425445,-543.51378)"
       id="flowRoot2416"
       xml:space="preserve"
       style="font-size:144px;font-style:normal;font-weight:bold;fill:#ff00ff;fill-opacity:1;stroke:none;font-family:Bitstream Vera Sans;-inkscape-font-specification:Sans Bold"><flowRegion
         id="flowRegion2418"><rect
           width="633.07495"
           height="171.83463"
           x="54.263565"
           y="723.51422"
           id="rect2420"
           style="font-size:144px;fill:#ff00ff" /></flowRegion><flowPara
         id="flowPara2422"
         style="font-style:italic;font-variant:normal;font-weight:bold;font-stretch:normal;fill:#ff0000;font-family:URW Chancery L;-inkscape-font-specification:URW Chancery L Bold Italic">S</flowPara></flowRoot>  </g>
</svg>
